Cell_Type,Marker,Source,Tissue_Type
B,BANK1,Ira_Fleming,Skin
B,BLK,Mary_Tomayko,Skin
B,CD10,Mary_Tomayko,Skin
B,CD19,Mary_Tomayko,Skin
B,CD27,Mary_Tomayko,Skin
B,CD38,Mary_Tomayko,Skin
B,CD79A,Ira_Fleming,Skin
B,CD79A,Mary_Tomayko,Skin
B,CD79A,Travis_Hughes,Skin
B,CD79B,Mary_Tomayko,Skin
B,IGHD,Mary_Tomayko,Skin
B,MBC,Mary_Tomayko,Skin
B,MS4A1,Ira_Fleming,Skin
B,MS4A1,Travis_Hughes,Skin
CD14_monocyte,CD14,Ira_Fleming,Skin
CD14_monocyte,CD68,Ira_Fleming,Skin
CD14_monocyte,FCGR3A,Ira_Fleming,Skin
CD14_monocyte,LYZ,Ira_Fleming,Skin
CD14_monocyte,S100A9,Ira_Fleming,Skin
CD16_monocyte,CD68,Ira_Fleming,Skin
CD16_monocyte,FCGR3A,Ira_Fleming,Skin
CD16_monocyte,LYZ,Ira_Fleming,Skin
CD16_monocyte,MS4A7,Ira_Fleming,Skin
CD16_monocyte,S100A9,Ira_Fleming,Skin
CD4_T,CD3D,Ira_Fleming,Skin
CD4_T,CD3E,Ira_Fleming,Skin
CD4_T,CD4,Ira_Fleming,Skin
CD4_T,CD6,Ira_Fleming,Skin
CD4_T,IL7R,Ira_Fleming,Skin
CD4_T,TCF7,Ira_Fleming,Skin
CD4_T,TRAC,Ira_Fleming,Skin
CD8_T,CD3D,Ira_Fleming,Skin
CD8_T,CD3E,Ira_Fleming,Skin
CD8_T,CD6,Ira_Fleming,Skin
CD8_T,CD8A,Ira_Fleming,Skin
CD8_T,CD8B,Ira_Fleming,Skin
CD8_T,FCGR3A,Ira_Fleming,Skin
CD8_T,GZMA,Ira_Fleming,Skin
CD8_T,TCF7,Ira_Fleming,Skin
CD8_T,TRAC,Ira_Fleming,Skin
DC,CD1C,Ira_Fleming,Skin
DC,CD1C,Mary_Tomayko,Skin
DC,CD301A,Mary_Tomayko,Skin
DC,CLEC10A,Ira_Fleming,Skin
DC,CLEC10A,Travis_Hughes,Skin
DC,CTS3,Ira_Fleming,Skin
DC,FCER1A,Ira_Fleming,Skin
DC,FCER1G,Travis_Hughes,Skin
DC,HLA-DR,Ira_Fleming,Skin
DC,LYZ,Ira_Fleming,Skin
Endothelial,CD93,Travis_Hughes,Skin
Endothelial,CDH5,Mary_Tomayko,Skin
Endothelial,PECAM1,Mary_Tomayko,Skin
Endothelial,SELE,Travis_Hughes,Skin
Endothelial,VWF,Mary_Tomayko,Skin
Eosinophils,CCR3,Mary_Tomayko,Skin
Eosinophils,IL5RA,Mary_Tomayko,Skin
Erythrocytes,HBA1,Mary_Tomayko,Skin
Erythrocytes,HBA2,Mary_Tomayko,Skin
Erythrocytes,HBB,Mary_Tomayko,Skin
Fibroblasts,COL1A2,Mary_Tomayko,Skin
Fibroblasts,COL6A2,Travis_Hughes,Skin
Fibroblasts,DCN,Mary_Tomayko,Skin
Fibroblasts,DCN,Travis_Hughes,Skin
Fibroblasts,LUM,Mary_Tomayko,Skin
Fibroblasts,PDGFRA,Mary_Tomayko,Skin
Fibroblasts,VIM,Mary_Tomayko,Skin
Hair,SOX9,Travis_Hughes,Skin
Keratinocytes,FGL,Mary_Tomayko,Skin
Keratinocytes,IVL,Mary_Tomayko,Skin
Keratinocytes,KRT1,Mary_Tomayko,Skin
Keratinocytes,KRT1,Travis_Hughes,Skin
Keratinocytes,KRT10,Mary_Tomayko,Skin
Keratinocytes,KRT14,Mary_Tomayko,Skin
Keratinocytes,KRT5,Mary_Tomayko,Skin
Keratinocytes,KRT5,Travis_Hughes,Skin
Langerhans,CD1A,Mary_Tomayko,Skin
Langerhans,CD207,Mary_Tomayko,Skin
Macrophages,CD14,Mary_Tomayko,Skin
Macrophages,CD163,Mary_Tomayko,Skin
Macrophages,CD68,Travis_Hughes,Skin
Macrophages,CSF1R,Mary_Tomayko,Skin
Macrophages,CTSS,Travis_Hughes,Skin
Mast,CPA3,Travis_Hughes,Skin
Mast,FCER1,Mary_Tomayko,Skin
Mast,IL1RL1,Travis_Hughes,Skin
Melanocytes,DCT,Mary_Tomayko,Skin
Melanocytes,MLANA,Mary_Tomayko,Skin
Melanocytes,PMEL,Mary_Tomayko,Skin
Melanocytes,TYRP1,Mary_Tomayko,Skin
Muscle,KCNQ1OT1,Travis_Hughes,Skin
Muscle,NEAT1,Travis_Hughes,Skin
Neutrophils,CD16,Mary_Tomayko,Skin
Neutrophils,CXCR2,Ira_Fleming,Skin
Neutrophils,FCGR3B,Ira_Fleming,Skin
Neutrophils,ITGAM,Mary_Tomayko,Skin
Neutrophils,LY6G6D,Mary_Tomayko,Skin
Neutrophils,SOD2,Ira_Fleming,Skin
NK,CD3D,Ira_Fleming,Skin
NK,CD3E,Ira_Fleming,Skin
NK,FCGR3A,Ira_Fleming,Skin
NK,GNLY,Ira_Fleming,Skin
NK,GZMA,Ira_Fleming,Skin
NK,NKG7,Ira_Fleming,Skin
NK,TRAC,Ira_Fleming,Skin
PB/PC,BLIMP1,Mary_Tomayko,Skin
PB/PC,CD19,Mary_Tomayko,Skin
PB/PC,CD27,Mary_Tomayko,Skin
PB/PC,CD38,Mary_Tomayko,Skin
PB/PC,XBP1,Mary_Tomayko,Skin
Plasma,IGHG1,Ira_Fleming,Skin
Plasma,IGHG1,Travis_Hughes,Skin
Plasma,IGJ,Ira_Fleming,Skin
Plasma,IGKC,Ira_Fleming,Skin
Platelet,PF4,Ira_Fleming,Skin
Platelet,PPBP,Ira_Fleming,Skin
Platelet,TUBB1,Ira_Fleming,Skin
Proliferating,MKI67,Ira_Fleming,Skin
Proliferating,TOP2A,Ira_Fleming,Skin
Schwann,SCN7A,Travis_Hughes,Skin
T,CCR7,Mary_Tomayko,Skin
T,CD2,Mary_Tomayko,Skin
T,CD3D,Mary_Tomayko,Skin
T,CD3D,Travis_Hughes,Skin
T,CD3E,Mary_Tomayko,Skin
T,CD3G,Mary_Tomayko,Skin
T,CD4,Mary_Tomayko,Skin
T,CD6,Mary_Tomayko,Skin
T,CD8A,Mary_Tomayko,Skin
T,CD8B,Mary_Tomayko,Skin
T,IL7R,Mary_Tomayko,Skin
T,NKG7,Mary_Tomayko,Skin
T,TRBC2,Travis_Hughes,Skin
TFH,BCL6,Mary_Tomayko,Skin
TFH,CD4,Mary_Tomayko,Skin
TFH,CXCR5,Mary_Tomayko,Skin
TFH,PDCD1,Mary_Tomayko,Skin
Tregs,FOXP3,Mary_Tomayko,Skin
Tregs,IL2RA,Mary_Tomayko,Skin
TRM,CXCR6,Mary_Tomayko,Skin
TRM,ITGA1,Mary_Tomayko,Skin
